<?xml version="1.0" encoding="utf-8"?>
<!-- Generator: Adobe Illustrator 19.2.1, SVG Export Plug-In . SVG Version: 6.00 Build 0)  -->
<svg version="1.1" id="Layer_1" xmlns="http://www.w3.org/2000/svg" xmlns:xlink="http://www.w3.org/1999/xlink" x="0px" y="0px"
	 viewBox="0 0 300 250" style="enable-background:new 0 0 300 250;" xml:space="preserve">
<style type="text/css">
	.st0{fill:url(#SVGID_1_);}
	.st1{fill:url(#SVGID_2_);}
	.st2{fill:#FFFFFF;}
	.st3{fill:#1C1C1A;}
	.st4{fill:none;}
	.st5{fill:url(#SVGID_3_);}
	.st6{fill:url(#SVGID_4_);}
	.st7{fill:#FFFFFF;stroke:#FFFFFF;stroke-width:1.2;stroke-linecap:round;stroke-linejoin:round;}
	.st8{fill:url(#SVGID_5_);}
	.st9{fill:url(#SVGID_6_);}
</style>
<g>
	
		<radialGradient id="SVGID_1_" cx="104.704" cy="76.5521" r="19.4912" gradientTransform="matrix(1 0 0 -1 0 252)" gradientUnits="userSpaceOnUse">
		<stop  offset="0" style="stop-color:#007EBE"/>
		<stop  offset="0.3682" style="stop-color:#007CBB"/>
		<stop  offset="0.5941" style="stop-color:#0077B3"/>
		<stop  offset="0.7818" style="stop-color:#006EA5"/>
		<stop  offset="0.9474" style="stop-color:#006190"/>
		<stop  offset="1" style="stop-color:#005C88"/>
	</radialGradient>
	<path class="st0" d="M99,175.6c1.4-0.6,2.9-0.9,4.5-0.9c1.5,0,3,0.3,4.3,0.9l-5.5,6L99,175.6z M99.6,184.6l-3.8-6.9
		c-2.2,2-3.6,5-3.6,8.2c0,1.9,0.4,3.7,1.3,5.3L99.6,184.6z M111.1,177.8l-6.7,7.5l5.6,9.9c2.8-2,4.6-5.3,4.6-9
		C114.6,182.9,113.2,179.9,111.1,177.8z M101.6,188.3l-5.8,6.1c2,1.8,4.6,2.9,7.4,3c1.1,0,2.2-0.1,3.3-0.5L101.6,188.3z"/>
	
		<radialGradient id="SVGID_2_" cx="-249.8069" cy="-344.1844" r="8.9531" gradientTransform="matrix(0.5899 0.1692 9.370000e-002 -0.3269 285.1429 109.4685)" gradientUnits="userSpaceOnUse">
		<stop  offset="0" style="stop-color:#FFFFFF"/>
		<stop  offset="9.896073e-002" style="stop-color:#FAFCFE"/>
		<stop  offset="0.2228" style="stop-color:#EAF4F9"/>
		<stop  offset="0.36" style="stop-color:#D1E7F3"/>
		<stop  offset="0.5068" style="stop-color:#ADD5E9"/>
		<stop  offset="0.6612" style="stop-color:#7FBDDD"/>
		<stop  offset="0.8222" style="stop-color:#47A0CE"/>
		<stop  offset="0.9856" style="stop-color:#067FBD"/>
		<stop  offset="1" style="stop-color:#007CBB"/>
	</radialGradient>
	<path class="st1" d="M110.8,181.2c0.5-1.6-1.5-3.6-4.4-4.4c-2.9-0.8-5.7-0.2-6.1,1.4c-0.5,1.6,1.5,3.6,4.4,4.4
		C107.6,183.5,110.3,182.8,110.8,181.2z"/>
	<path class="st2" d="M109.9,195.2l-5.6-9.9l6.7-7.5c-0.9-0.9-2.1-1.7-3.3-2.2l-5.5,6l-3.3-6c-1.2,0.5-2.3,1.2-3.2,2.1l3.8,6.9
		l-6.1,6.6c0.6,1.2,1.4,2.3,2.4,3.1l5.8-6.1l4.9,8.6C107.8,196.5,108.9,195.9,109.9,195.2z"/>
	<g>
		<path class="st3" d="M111.4,178.1c-0.1-0.1-0.2-0.2-0.3-0.3l-6.7,7.5l5.6,9.9l0.1-0.1l-5.4-9.5L111.4,178.1z"/>
		<path class="st3" d="M102.3,181.6l0.1-0.1l-3.3-5.9c-0.1,0-0.1,0-0.2,0.1L102.3,181.6z"/>
		<path class="st3" d="M95.8,194.4c0.1,0.1,0.2,0.2,0.3,0.3l5.7-6l-0.2-0.4L95.8,194.4z"/>
	</g>
	
		<ellipse transform="matrix(9.481788e-003 -1 1 9.481788e-003 -83.5851 287.5491)" class="st4" cx="103.4" cy="186" rx="11.3" ry="11.2"/>
	<path class="st4" d="M103.2,197.4c-6.1-0.1-11.1-5.1-11.1-11.3l0,0V186l0,0c0.1-6.2,5.1-11.2,11.2-11.2l0,0h0.1l0,0
		c6.1,0.1,11.1,5.1,11.1,11.3l0,0v0.1l0,0C114.4,192.4,109.4,197.4,103.2,197.4L103.2,197.4C103.3,197.4,103.3,197.4,103.2,197.4
		L103.2,197.4z"/>
	
		<radialGradient id="SVGID_3_" cx="87.8365" cy="80.303" r="21.0832" gradientTransform="matrix(1 0 0 -1 0 252)" gradientUnits="userSpaceOnUse">
		<stop  offset="0" style="stop-color:#72B43D"/>
		<stop  offset="0.3617" style="stop-color:#70B13C"/>
		<stop  offset="0.5837" style="stop-color:#6BA939"/>
		<stop  offset="0.768" style="stop-color:#629B35"/>
		<stop  offset="0.9308" style="stop-color:#55862E"/>
		<stop  offset="1" style="stop-color:#4E7B2A"/>
	</radialGradient>
	<path class="st5" d="M76.1,191.3c-3-3.1-4.2-7.8-2.7-12.3c1.5-4.4,5.2-7.5,9.5-8.2l-8.7,15.4L76.1,191.3z M87.4,184.3l-2.6-10
		l-4.8,9.3L87.4,184.3z M88.3,187.8l-9.6-1l-2.5,4.5c1.3,1.4,2.9,2.4,4.8,3.1c3.1,1,6.3,0.7,9.1-0.6L88.3,187.8z M88.7,171.2
		c-0.4-0.1-0.8-0.3-1.3-0.3l6.1,20.3c1.2-1.3,2.2-2.8,2.8-4.6C98.3,180.2,95,173.3,88.7,171.2z"/>
	
		<radialGradient id="SVGID_4_" cx="20.3565" cy="-930.329" r="8.9453" gradientTransform="matrix(0.6485 0.3937 0.2147 -0.3536 274.6247 -159.8028)" gradientUnits="userSpaceOnUse">
		<stop  offset="0" style="stop-color:#FFFFFF"/>
		<stop  offset="0.2295" style="stop-color:#FDFEFC"/>
		<stop  offset="0.3752" style="stop-color:#F8FBF4"/>
		<stop  offset="0.4976" style="stop-color:#EEF5E5"/>
		<stop  offset="0.6071" style="stop-color:#E0EED0"/>
		<stop  offset="0.7081" style="stop-color:#CEE4B5"/>
		<stop  offset="0.8027" style="stop-color:#B9D794"/>
		<stop  offset="0.8924" style="stop-color:#9FC96D"/>
		<stop  offset="0.976" style="stop-color:#81B840"/>
		<stop  offset="1" style="stop-color:#78B332"/>
	</radialGradient>
	<path class="st6" d="M93.9,180.7C95,179,93.2,176,90,174c-3.2-1.9-6.7-2.1-7.7-0.4c-1.1,1.7,0.7,4.7,3.9,6.7
		C89.4,182.3,92.8,182.4,93.9,180.7z"/>
	<g>
		<path class="st3" d="M88.3,187.8l-9.6-1l-2.5,4.5l0,0c0.1,0.1,0.2,0.2,0.4,0.4L79,187l9.3,1V187.8z"/>
		<path class="st3" d="M87.4,170.9l6.1,20.3c0.1-0.1,0.1-0.2,0.2-0.2l-6-20C87.6,170.9,87.5,170.9,87.4,170.9z"/>
		<polygon class="st3" points="85,174.9 84.8,174.2 80.1,183.5 80.6,183.5 		"/>
	</g>
	<g>
		<g>
			<path class="st7" d="M43.9,167.6L43.9,167.6L43.9,167.6L43.9,167.6L43.9,167.6L43.9,167.6l0.4-0.5l4.4,4.3l1.6-1.6l0.4,0.4
				l-2,2.1L43.9,167.6L43.9,167.6z"/>
		</g>
		<path class="st7" d="M50.4,164.3c1.4-0.8,2.6-0.2,3.3,1c0.7,1.1,0.8,2.6-0.6,3.4c-1.4,0.8-2.6,0.2-3.3-1
			C49.1,166.6,49,165.2,50.4,164.3z M52.8,168.3c0.9-0.6,0.9-1.6,0.3-2.6c-0.6-1-1.6-1.4-2.5-0.9c-0.9,0.6-0.9,1.6-0.3,2.6
			C50.9,168.3,51.9,168.8,52.8,168.3z"/>
		<path class="st7" d="M56,162.4l-1,0.4l1.1,3c0.2,0.4,0.4,0.7,0.9,0.5c0.2-0.1,0.3-0.2,0.5-0.3l0.2,0.5c-0.1,0.1-0.4,0.3-0.7,0.4
			c-1,0.4-1.3-0.3-1.6-1.2l-1-2.7l-0.9,0.3l-0.2-0.5l0.9-0.3l-0.4-1.1l0.5-0.4l0.5,1.3l1-0.4L56,162.4z"/>
		<path class="st7" d="M59.7,161.7l-1.1,0.2l0.6,3.1c0.1,0.4,0.3,0.8,0.8,0.7c0.2,0,0.4-0.1,0.5-0.2l0.1,0.5
			c-0.1,0.1-0.4,0.2-0.7,0.3c-1.1,0.2-1.2-0.5-1.4-1.4L58,162l-0.9,0.2l-0.1-0.5l0.9-0.2l-0.2-1.2l0.6-0.3l0.3,1.4l1.1-0.2
			L59.7,161.7z"/>
		<path class="st7" d="M63.4,160.9c1.6,0.1,2.2,1.3,2.2,2.6s-0.8,2.5-2.4,2.5c-1.6-0.1-2.2-1.3-2.2-2.6
			C61,162,61.8,160.8,63.4,160.9z M63.2,165.5c1.1,0,1.7-0.9,1.7-2s-0.5-2.1-1.6-2.1s-1.7,0.9-1.7,2
			C61.6,164.5,62.1,165.5,63.2,165.5z"/>
	</g>
	<g>
		
			<radialGradient id="SVGID_5_" cx="67.18" cy="81.1358" r="26.9189" fx="68.6467" fy="82.4191" gradientTransform="matrix(1 0 0 -1 0 252)" gradientUnits="userSpaceOnUse">
			<stop  offset="0" style="stop-color:#007EBE"/>
			<stop  offset="0.3519" style="stop-color:#007CBB"/>
			<stop  offset="0.5678" style="stop-color:#0077B3"/>
			<stop  offset="0.7471" style="stop-color:#006EA5"/>
			<stop  offset="0.9054" style="stop-color:#006090"/>
			<stop  offset="1" style="stop-color:#005680"/>
		</radialGradient>
		<path class="st8" d="M71.4,171.6c4,2.7,6.6,7.3,6.6,12.5c0,0.5,0,0.9-0.1,1.4L71.4,171.6z M64.4,186.2L64.3,169
			c-0.5,0-0.9-0.1-1.4-0.1c-4.4,0-8.4,1.9-11.1,4.9L64.4,186.2z M67.3,172.3v17l-2.8,1.2l-12.2-12l7.7,20.2c0.9,0.2,1.9,0.3,2.9,0.3
			c5.7,0,10.7-3.2,13.2-7.8L67.3,172.3z M48.5,179.6c-0.4,1.4-0.7,2.9-0.7,4.4c0,5.4,2.8,10.1,7.1,12.8L48.5,179.6z"/>
		
			<radialGradient id="SVGID_6_" cx="-35.124" cy="-449.6961" r="8.9526" gradientTransform="matrix(0.7806 0.2678 0.141 -0.4109 155.853 -0.1448)" gradientUnits="userSpaceOnUse">
			<stop  offset="0" style="stop-color:#FFFFFF"/>
			<stop  offset="9.896073e-002" style="stop-color:#FAFCFE"/>
			<stop  offset="0.2228" style="stop-color:#EAF4F9"/>
			<stop  offset="0.36" style="stop-color:#D1E7F3"/>
			<stop  offset="0.5068" style="stop-color:#ADD5E9"/>
			<stop  offset="0.6612" style="stop-color:#7FBDDD"/>
			<stop  offset="0.8222" style="stop-color:#47A0CE"/>
			<stop  offset="0.9856" style="stop-color:#067FBD"/>
			<stop  offset="1" style="stop-color:#007CBB"/>
		</radialGradient>
		<path class="st9" d="M72,177.6c0.7-2-1.9-4.8-5.7-6.1c-3.9-1.3-7.6-0.8-8.3,1.3c-0.7,2,1.9,4.8,5.7,6.1
			C67.6,180.2,71.3,179.7,72,177.6z"/>
		<path class="st2" d="M77.9,185.4l-6.5-13.9c-2.1-1.4-4.5-2.3-7.1-2.6l0.1,17.2l-12.6-12.4c-1.5,1.6-2.7,3.6-3.3,5.8l6.4,17.2
			c1.6,1,3.3,1.7,5.2,2l-7.7-20.2l12.2,12l2.8-1.2v-17l8.8,19C77.1,189.5,77.7,187.5,77.9,185.4z"/>
		<g>
			<circle class="st4" cx="62.9" cy="184" r="15.1"/>
		</g>
		<g>
			<path class="st3" d="M64.4,186.2l-12.6-12.4l0,0L64.4,186.2L64.4,186.2z"/>
			<path class="st3" d="M52.4,178.6l7.7,20.2c0.1,0,0.2,0,0.2,0l-7.6-19.9L52.4,178.6z"/>
			<polygon class="st3" points="67.3,172.3 67.4,189.4 64.6,190.5 64.9,190.8 67.7,189.6 67.6,173 			"/>
			<path class="st3" d="M71.4,171.6l6.5,13.9c0-0.1,0-0.2,0-0.4l-6.2-13.3C71.6,171.7,71.5,171.6,71.4,171.6z"/>
		</g>
	</g>
	<path class="st2" d="M93.5,191.2l-6.1-20.3c-0.8-0.2-1.7-0.3-2.5-0.3c-0.7,0-1.3,0.1-2,0.2l-8.7,15.5l1.9,5.1l2.5-4.5l9.6,1
		l1.8,5.9C91.3,193.1,92.5,192.2,93.5,191.2z M80.1,183.5l4.8-9.3l2.6,10L80.1,183.5z"/>
</g>
</svg>
